…
Next we demonstrate filtering by date, month, and year. The `vrt` and
`ee_ob` are always filtered together

-   **by date**

``` r
modis_tidy   |> 
  filter(date>="2021-06-01")
#> band names: [ NDVI, EVI, DetailedQA, sur_refl_b01, sur_refl_b02, sur_refl_b03, sur_refl_b07, ViewZenith, SolarZenith, RelativeAzimuth, DayOfYear, SummaryQA ] 
#> 
#> $ee_ob
#> EarthEngine Object: ImageCollection
#> $vrt
#> # A tibble: 26 x 9
#>    id           time_start          syste~1 date       month  year   doy band_~2
#>    <chr>        <dttm>              <chr>   <date>     <dbl> <dbl> <dbl> <list> 
#>  1 MODIS/006/M~ 2021-06-10 00:00:00 2021_0~ 2021-06-10     6  2021   161 <chr>  
#>  2 MODIS/006/M~ 2021-06-26 00:00:00 2021_0~ 2021-06-26     6  2021   177 <chr>  
#>  3 MODIS/006/M~ 2021-07-12 00:00:00 2021_0~ 2021-07-12     7  2021   193 <chr>  
#>  4 MODIS/006/M~ 2021-07-28 00:00:00 2021_0~ 2021-07-28     7  2021   209 <chr>  
#>  5 MODIS/006/M~ 2021-08-13 00:00:00 2021_0~ 2021-08-13     8  2021   225 <chr>  
#>  6 MODIS/006/M~ 2021-08-29 00:00:00 2021_0~ 2021-08-29     8  2021   241 <chr>  
#>  7 MODIS/006/M~ 2021-09-14 00:00:00 2021_0~ 2021-09-14     9  2021   257 <chr>  
#>  8 MODIS/006/M~ 2021-09-30 00:00:00 2021_0~ 2021-09-30     9  2021   273 <chr>  
#>  9 MODIS/006/M~ 2021-10-16 00:00:00 2021_1~ 2021-10-16    10  2021   289 <chr>  
#> 10 MODIS/006/M~ 2021-11-01 00:00:00 2021_1~ 2021-11-01    11  2021   305 <chr>  
#> # ... with 16 more rows, 1 more variable: tidyee_index <chr>, and abbreviated
#> #   variable names 1: system_index, 2: band_names
#> # i Use `print(n = ...)` to see more rows, and `colnames()` to see all variable names
…
-   **by year**

``` r
modis_tidy   |> 
  filter(year%in% 2010:2011)
#> band names: [ NDVI, EVI, DetailedQA, sur_refl_b01, sur_refl_b02, sur_refl_b03, sur_refl_b07, ViewZenith, SolarZenith, RelativeAzimuth, DayOfYear, SummaryQA ] 
#> 
#> $ee_ob
#> EarthEngine Object: ImageCollection
#> $vrt
#> # A tibble: 46 x 9
#>    id           time_start          syste~1 date       month  year   doy band_~2
#>    <chr>        <dttm>              <chr>   <date>     <dbl> <dbl> <dbl> <list> 
#>  1 MODIS/006/M~ 2010-01-01 00:00:00 2010_0~ 2010-01-01     1  2010     1 <chr>  
#>  2 MODIS/006/M~ 2010-01-17 00:00:00 2010_0~ 2010-01-17     1  2010    17 <chr>  
#>  3 MODIS/006/M~ 2010-02-02 00:00:00 2010_0~ 2010-02-02     2  2010    33 <chr>  
#>  4 MODIS/006/M~ 2010-02-18 00:00:00 2010_0~ 2010-02-18     2  2010    49 <chr>  
#>  5 MODIS/006/M~ 2010-03-06 00:00:00 2010_0~ 2010-03-06     3  2010    65 <chr>  
#>  6 MODIS/006/M~ 2010-03-22 00:00:00 2010_0~ 2010-03-22     3  2010    81 <chr>  
#>  7 MODIS/006/M~ 2010-04-07 00:00:00 2010_0~ 2010-04-07     4  2010    97 <chr>  
#>  8 MODIS/006/M~ 2010-04-23 00:00:00 2010_0~ 2010-04-23     4  2010   113 <chr>  
#>  9 MODIS/006/M~ 2010-05-09 00:00:00 2010_0~ 2010-05-09     5  2010   129 <chr>  
#> 10 MODIS/006/M~ 2010-05-25 00:00:00 2010_0~ 2010-05-25     5  2010   145 <chr>  
#> # ... with 36 more rows, 1 more variable: tidyee_index <chr>, and abbreviated
#> #   variable names 1: system_index, 2: band_names
#> # i Use `print(n = ...)` to see more rows, and `colnames()` to see all variable names
…
-   **by month**

``` r
modis_tidy   |> 
  filter(month%in% c(7,8))
#> band names: [ NDVI, EVI, DetailedQA, sur_refl_b01, sur_refl_b02, sur_refl_b03, sur_refl_b07, ViewZenith, SolarZenith, RelativeAzimuth, DayOfYear, SummaryQA ] 
#> 
#> $ee_ob
#> EarthEngine Object: ImageCollection
#> $vrt
#> # A tibble: 89 x 9
#>    id           time_start          syste~1 date       month  year   doy band_~2
#>    <chr>        <dttm>              <chr>   <date>     <dbl> <dbl> <dbl> <list> 
#>  1 MODIS/006/M~ 2000-07-11 00:00:00 2000_0~ 2000-07-11     7  2000   193 <chr>  
#>  2 MODIS/006/M~ 2000-07-27 00:00:00 2000_0~ 2000-07-27     7  2000   209 <chr>  
#>  3 MODIS/006/M~ 2000-08-12 00:00:00 2000_0~ 2000-08-12     8  2000   225 <chr>  
#>  4 MODIS/006/M~ 2000-08-28 00:00:00 2000_0~ 2000-08-28     8  2000   241 <chr>  
#>  5 MODIS/006/M~ 2001-07-12 00:00:00 2001_0~ 2001-07-12     7  2001   193 <chr>  
#>  6 MODIS/006/M~ 2001-07-28 00:00:00 2001_0~ 2001-07-28     7  2001   209 <chr>  
#>  7 MODIS/006/M~ 2001-08-13 00:00:00 2001_0~ 2001-08-13     8  2001   225 <chr>  
#>  8 MODIS/006/M~ 2001-08-29 00:00:00 2001_0~ 2001-08-29     8  2001   241 <chr>  
#>  9 MODIS/006/M~ 2002-07-12 00:00:00 2002_0~ 2002-07-12     7  2002   193 <chr>  
#> 10 MODIS/006/M~ 2002-07-28 00:00:00 2002_0~ 2002-07-28     7  2002   209 <chr>  
#> # ... with 79 more rows, 1 more variable: tidyee_index <chr>, and abbreviated
#> #   variable names 1: system_index, 2: band_names
#> # i Use `print(n = ...)` to see more rows, and `colnames()` to see all variable names
…
